Wrangling rows
…
<img src="../images/dplyr_filter.png", height = 45%, style = "position:absolute; top: 32%; left: 40%"></img>

---

# Filtering rows

## `filter()`

```r
filter(flights, dep_time == sched_dep_time)
```

```
## # A tibble: 16,514 × 19
##     year month   day dep_time sched_dep_time dep_delay arr_time sched_arr_time
##    <int> <int> <int>    <int>          <int>     <dbl>    <int>          <int>
##  1  2013     1     1      559            559         0      702            706
##  2  2013     1     1      600            600         0      851            858
##  3  2013     1     1      600            600         0      837            825
##  4  2013     1     1      607            607         0      858            915
##  5  2013     1     1      615            615         0     1039           1100
##  6  2013     1     1      615            615         0      833            842
##  7  2013     1     1      635            635         0     1028            940
##  8  2013     1     1      655            655         0     1021           1030
##  9  2013     1     1      739            739         0     1104           1038
## 10  2013     1     1      745            745         0     1135           1125
## # … with 16,504 more rows, and 11 more variables: arr_delay <dbl>,
## #   carrier <chr>, flight <int>, tailnum <chr>, origin <chr>, dest <chr>,
## #   air_time <dbl>, distance <dbl>, hour <dbl>, minute <dbl>, time_hour <dttm>
```

---

# Filtering rows

## `filter()`

```r
filter(flights, dep_delay < 0 & month != 1)
```

```
## # A tibble: 168,163 × 19
##     year month   day dep_time sched_dep_time dep_delay arr_time sched_arr_time
##    <int> <int> <int>    <int>          <int>     <dbl>    <int>          <int>
##  1  2013    10     1      447            500       -13      614            648
##  2  2013    10     1      536            545        -9      809            855
##  3  2013    10     1      539            545        -6      801            827
##  4  2013    10     1      539            545        -6      917            933
##  5  2013    10     1      544            550        -6      912            932
##  6  2013    10     1      549            600       -11      653            716
##  7  2013    10     1      550            600       -10      648            700
##  8  2013    10     1      550            600       -10      649            659
##  9  2013    10     1      551            600        -9      727            730
## 10  2013    10     1      551            600        -9      710            721
## # … with 168,153 more rows, and 11 more variables: arr_delay <dbl>,
## #   carrier <chr>, flight <int>, tailnum <chr>, origin <chr>, dest <chr>,
## #   air_time <dbl>, distance <dbl>, hour <dbl>, minute <dbl>, time_hour <dttm>
```

---

# Filtering rows

## `filter()`

```r
filter(flights, month == 11 | month == 12)
```

```
## # A tibble: 55,403 × 19
##     year month   day dep_time sched_dep_time dep_delay arr_time sched_arr_time
##    <int> <int> <int>    <int>          <int>     <dbl>    <int>          <int>
##  1  2013    11     1        5           2359         6      352            345
##  2  2013    11     1       35           2250       105      123           2356
##  3  2013    11     1      455            500        -5      641            651
##  4  2013    11     1      539            545        -6      856            827
##  5  2013    11     1      542            545        -3      831            855
##  6  2013    11     1      549            600       -11      912            923
##  7  2013    11     1      550            600       -10      705            659
##  8  2013    11     1      554            600        -6      659            701
##  9  2013    11     1      554            600        -6      826            827
## 10  2013    11     1      554            600        -6      749            751
## # … with 55,393 more rows, and 11 more variables: arr_delay <dbl>,
## #   carrier <chr>, flight <int>, tailnum <chr>, origin <chr>, dest <chr>,
## #   air_time <dbl>, distance <dbl>, hour <dbl>, minute <dbl>, time_hour <dttm>
```

---

# Filtering rows

## `filter()`

```r
filter(flights, month %in% c(11, 12))
```

```
## # A tibble: 55,403 × 19
##     year month   day dep_time sched_dep_time dep_delay arr_time sched_arr_time
##    <int> <int> <int>    <int>          <int>     <dbl>    <int>          <int>
##  1  2013    11     1        5           2359         6      352            345
##  2  2013    11     1       35           2250       105      123           2356
##  3  2013    11     1      455            500        -5      641            651
##  4  2013    11     1      539            545        -6      856            827
##  5  2013    11     1      542            545        -3      831            855
##  6  2013    11     1      549            600       -11      912            923
##  7  2013    11     1      550            600       -10      705            659
##  8  2013    11     1      554            600        -6      659            701
##  9  2013    11     1      554            600        -6      826            827
## 10  2013    11     1      554            600        -6      749            751
## # … with 55,393 more rows, and 11 more variables: arr_delay <dbl>,
## #   carrier <chr>, flight <int>, tailnum <chr>, origin <chr>, dest <chr>,
## #   air_time <dbl>, distance <dbl>, hour <dbl>, minute <dbl>, time_hour <dttm>
```
…
# Filtering rows

## Check if `NA` with `is.na()`

.pull-left[

```r
flights2 <- flights
flights2[1:5, 1] <- NA
flights2[, 1:5]
```

```
## # A tibble: 336,776 × 5
##     year month   day dep_time sched_dep_time
##    <int> <int> <int>    <int>          <int>
##  1    NA     1     1      517            515
##  2    NA     1     1      533            529
##  3    NA     1     1      542            540
##  4    NA     1     1      544            545
##  5    NA     1     1      554            600
##  6  2013     1     1      554            558
##  7  2013     1     1      555            600
##  8  2013     1     1      557            600
##  9  2013     1     1      557            600
## 10  2013     1     1      558            600
## # … with 336,766 more rows
```
]

.pull-right[

```r
filter(flights2, !is.na(year))[, 1:5]
```

```
## # A tibble: 336,771 × 5
##     year month   day dep_time sched_dep_time
##    <int> <int> <int>    <int>          <int>
##  1  2013     1     1      554            558
##  2  2013     1     1      555            600
##  3  2013     1     1      557            600
##  4  2013     1     1      557            600
##  5  2013     1     1      558            600
##  6  2013     1     1      558            600
##  7  2013     1     1      558            600
##  8  2013     1     1      558            600
##  9  2013     1     1      558            600
## 10  2013     1     1      559            600
## # … with 336,761 more rows
```
…
<img src="../images/dplyr_arrange.png", height = 45%, style = "position:absolute; top: 32%; left: 40%"></img>

---

# Sorting rows

## `arrange()`

```r
arrange(flights, sched_dep_time)
```

```
## # A tibble: 336,776 × 19
##     year month   day dep_time sched_dep_time dep_delay arr_time sched_arr_time
##    <int> <int> <int>    <int>          <int>     <dbl>    <int>          <int>
##  1  2013     7    27       NA            106        NA       NA            245
##  2  2013     1     2      458            500        -2      703            650
##  3  2013     1     3      458            500        -2      650            650
##  4  2013     1     4      456            500        -4      631            650
##  5  2013     1     5      458            500        -2      640            650
##  6  2013     1     6      458            500        -2      718            650
##  7  2013     1     7      454            500        -6      637            648
##  8  2013     1     8      454            500        -6      625            648
##  9  2013     1     9      457            500        -3      647            648
## 10  2013     1    10      450            500       -10      634            648
## # … with 336,766 more rows, and 11 more variables: arr_delay <dbl>,
## #   carrier <chr>, flight <int>, tailnum <chr>, origin <chr>, dest <chr>,
## #   air_time <dbl>, distance <dbl>, hour <dbl>, minute <dbl>, time_hour <dttm>
```

---

# Sorting rows

## `arrange()`

```r
arrange(flights, sched_dep_time, dep_time, sched_arr_time)
```

```
## # A tibble: 336,776 × 19
##     year month   day dep_time sched_dep_time dep_delay arr_time sched_arr_time
##    <int> <int> <int>    <int>          <int>     <dbl>    <int>          <int>
##  1  2013     7    27       NA            106        NA       NA            245
##  2  2013     5     8      445            500       -15      620            640
##  3  2013     5     5      446            500       -14      636            640
##  4  2013     9     4      446            500       -14      618            648
##  5  2013    10     1      447            500       -13      614            648
##  6  2013     9    19      447            500       -13      620            648
##  7  2013     5     7      448            500       -12      624            640
##  8  2013     1    29      448            500       -12      635            648
##  9  2013    12    27      448            500       -12      648            651
## 10  2013     4     9      449            500       -11      620            640
## # … with 336,766 more rows, and 11 more variables: arr_delay <dbl>,
## #   carrier <chr>, flight <int>, tailnum <chr>, origin <chr>, dest <chr>,
## #   air_time <dbl>, distance <dbl>, hour <dbl>, minute <dbl>, time_hour <dttm>
```
…
---

# Grouping data

## `group_by()`

```r
group_by(flights, month)
```

```
## # A tibble: 336,776 × 19
## # Groups:   month [12]
##     year month   day dep_time sched_dep_time dep_delay arr_time sched_arr_time
##    <int> <int> <int>    <int>          <int>     <dbl>    <int>          <int>
##  1  2013     1     1      517            515         2      830            819
##  2  2013     1     1      533            529         4      850            830
##  3  2013     1     1      542            540         2      923            850
##  4  2013     1     1      544            545        -1     1004           1022
##  5  2013     1     1      554            600        -6      812            837
##  6  2013     1     1      554            558        -4      740            728
##  7  2013     1     1      555            600        -5      913            854
##  8  2013     1     1      557            600        -3      709            723
##  9  2013     1     1      557            600        -3      838            846
## 10  2013     1     1      558            600        -2      753            745
## # … with 336,766 more rows, and 11 more variables: arr_delay <dbl>,
## #   carrier <chr>, flight <int>, tailnum <chr>, origin <chr>, dest <chr>,
## #   air_time <dbl>, distance <dbl>, hour <dbl>, minute <dbl>, time_hour <dttm>
```

---

# Grouping data

### Remove groups with `ungroup()`

```r
group_by(flights, month) %>% 
  ungroup()
```

```
## # A tibble: 336,776 × 19
##     year month   day dep_time sched_dep_time dep_delay arr_time sched_arr_time
##    <int> <int> <int>    <int>          <int>     <dbl>    <int>          <int>
##  1  2013     1     1      517            515         2      830            819
##  2  2013     1     1      533            529         4      850            830
##  3  2013     1     1      542            540         2      923            850
##  4  2013     1     1      544            545        -1     1004           1022
##  5  2013     1     1      554            600        -6      812            837
##  6  2013     1     1      554            558        -4      740            728
##  7  2013     1     1      555            600        -5      913            854
##  8  2013     1     1      557            600        -3      709            723
##  9  2013     1     1      557            600        -3      838            846
## 10  2013     1     1      558            600        -2      753            745
## # … with 336,766 more rows, and 11 more variables: arr_delay <dbl>,
## #   carrier <chr>, flight <int>, tailnum <chr>, origin <chr>, dest <chr>,
## #   air_time <dbl>, distance <dbl>, hour <dbl>, minute <dbl>, time_hour <dttm>
```
…
#### Allows series of commands without having to save intermediate objects

```r
flights %>% 
  select(year:dep_delay, origin) %>% # include these columns
  select(-sched_dep_time) %>% # can't include and exclude in same select
  relocate(origin, .after = day) %>% # move origin
  rename(origin_airport = origin) %>% # rename origin
  mutate(dep_delay_hours = dep_delay / 60) %>% # create new column
  filter(origin_airport == "JFK") %>% # filter rows based on origin_airport
  arrange(dep_delay) # sort by dep_delay
```

```
## # A tibble: 111,279 × 7
##     year month   day origin_airport dep_time dep_delay dep_delay_hours
##    <int> <int> <int> <chr>             <int>     <dbl>           <dbl>
##  1  2013    12     7 JFK                2040       -43          -0.717
##  2  2013     3     2 JFK                1431       -24          -0.4  
##  3  2013     5    18 JFK                1912       -23          -0.383
##  4  2013     2     6 JFK                1528       -22          -0.367
##  5  2013     9    14 JFK                2223       -22          -0.367
##  6  2013     3    16 JFK                 909       -21          -0.35 
##  7  2013     5     1 JFK                1550       -20          -0.333
##  8  2013     5    23 JFK                1839       -20          -0.333
##  9  2013    12    10 JFK                1841       -19          -0.317
## 10  2013     3    12 JFK                1516       -19          -0.317
## # … with 111,269 more rows
```
…
#### But omitting assignment does

```r
flights %>% 
  select(year:dep_delay, origin) %>%
  select(-sched_dep_time)
```

```
## # A tibble: 336,776 × 6
##     year month   day dep_time dep_delay origin
##    <int> <int> <int>    <int>     <dbl> <chr> 
##  1  2013     1     1      517         2 EWR   
##  2  2013     1     1      533         4 LGA   
##  3  2013     1     1      542         2 JFK   
##  4  2013     1     1      544        -1 JFK   
##  5  2013     1     1      554        -6 LGA   
##  6  2013     1     1      554        -4 EWR   
##  7  2013     1     1      555        -5 EWR   
##  8  2013     1     1      557        -3 LGA   
##  9  2013     1     1      557        -3 JFK   
## 10  2013     1     1      558        -2 LGA   
## # … with 336,766 more rows
```
]

--

.pull-right[
#### As does wrapping assignment in parentheses

```r
(myflights <- flights %>% 
  select(year:dep_delay, origin) %>%
  select(-sched_dep_time))
```

```
## # A tibble: 336,776 × 6
##     year month   day dep_time dep_delay origin
##    <int> <int> <int>    <int>     <dbl> <chr> 
##  1  2013     1     1      517         2 EWR   
##  2  2013     1     1      533         4 LGA   
##  3  2013     1     1      542         2 JFK   
##  4  2013     1     1      544        -1 JFK   
##  5  2013     1     1      554        -6 LGA   
##  6  2013     1     1      554        -4 EWR   
##  7  2013     1     1      555        -5 EWR   
##  8  2013     1     1      557        -3 LGA   
##  9  2013     1     1      557        -3 JFK   
## 10  2013     1     1      558        -2 LGA   
## # … with 336,766 more rows
```
…
