Cleaning columns
…
---

# Selecting columns

## `select()`

### By inclusion

```r
select(flights, year, month, day, sched_dep_time, sched_arr_time)
```

```
## # A tibble: 336,776 × 5
##     year month   day sched_dep_time sched_arr_time
##    <int> <int> <int>          <int>          <int>
##  1  2013     1     1            515            819
##  2  2013     1     1            529            830
##  3  2013     1     1            540            850
##  4  2013     1     1            545           1022
##  5  2013     1     1            600            837
##  6  2013     1     1            558            728
##  7  2013     1     1            600            854
##  8  2013     1     1            600            723
##  9  2013     1     1            600            846
## 10  2013     1     1            600            745
## # … with 336,766 more rows
```
---

# Selecting columns

## `select()`

### By exclusion

```r
select(flights, -dep_time, -dep_delay, -arr_time, -arr_delay, -carrier, -flight, -tailnum,
       -origin, -dest, -air_time, -distance, -hour, -minute, -time_hour)
```

```
## # A tibble: 336,776 × 5
##     year month   day sched_dep_time sched_arr_time
##    <int> <int> <int>          <int>          <int>
##  1  2013     1     1            515            819
##  2  2013     1     1            529            830
##  3  2013     1     1            540            850
##  4  2013     1     1            545           1022
##  5  2013     1     1            600            837
##  6  2013     1     1            558            728
##  7  2013     1     1            600            854
##  8  2013     1     1            600            723
##  9  2013     1     1            600            846
## 10  2013     1     1            600            745
## # … with 336,766 more rows
```

---

# Selecting columns

## Helper functions

### Select consecutive columns with `:` 

```r
select(flights, year:day, hour, time_hour)
```

```
## # A tibble: 336,776 × 5
##     year month   day  hour time_hour          
##    <int> <int> <int> <dbl> <dttm>             
##  1  2013     1     1     5 2013-01-01 05:00:00
##  2  2013     1     1     5 2013-01-01 05:00:00
##  3  2013     1     1     5 2013-01-01 05:00:00
##  4  2013     1     1     5 2013-01-01 05:00:00
##  5  2013     1     1     6 2013-01-01 06:00:00
##  6  2013     1     1     5 2013-01-01 05:00:00
##  7  2013     1     1     6 2013-01-01 06:00:00
##  8  2013     1     1     6 2013-01-01 06:00:00
##  9  2013     1     1     6 2013-01-01 06:00:00
## 10  2013     1     1     6 2013-01-01 06:00:00
## # … with 336,766 more rows
```

---

# Selecting columns

## Helper functions

### Select everything else with `everything()`

```r
select(flights, time_hour, air_time, everything())
```

```
## # A tibble: 336,776 × 19
##    time_hour           air_time  year month   day dep_time sched_dep_time
##    <dttm>                 <dbl> <int> <int> <int>    <int>          <int>
##  1 2013-01-01 05:00:00      227  2013     1     1      517            515
##  2 2013-01-01 05:00:00      227  2013     1     1      533            529
##  3 2013-01-01 05:00:00      160  2013     1     1      542            540
##  4 2013-01-01 05:00:00      183  2013     1     1      544            545
##  5 2013-01-01 06:00:00      116  2013     1     1      554            600
##  6 2013-01-01 05:00:00      150  2013     1     1      554            558
##  7 2013-01-01 06:00:00      158  2013     1     1      555            600
##  8 2013-01-01 06:00:00       53  2013     1     1      557            600
##  9 2013-01-01 06:00:00      140  2013     1     1      557            600
## 10 2013-01-01 06:00:00      138  2013     1     1      558            600
## # … with 336,766 more rows, and 12 more variables: dep_delay <dbl>,
## #   arr_time <int>, sched_arr_time <int>, arr_delay <dbl>, carrier <chr>,
## #   flight <int>, tailnum <chr>, origin <chr>, dest <chr>, distance <dbl>,
## #   hour <dbl>, minute <dbl>
```

---

# Selecting columns

## Helper functions

### Select columns containing specific text with `contains()`

```r
select(flights, contains("_time"))
```

```
## # A tibble: 336,776 × 5
##    dep_time sched_dep_time arr_time sched_arr_time air_time
##       <int>          <int>    <int>          <int>    <dbl>
##  1      517            515      830            819      227
##  2      533            529      850            830      227
##  3      542            540      923            850      160
##  4      544            545     1004           1022      183
##  5      554            600      812            837      116
##  6      554            558      740            728      150
##  7      555            600      913            854      158
##  8      557            600      709            723       53
##  9      557            600      838            846      140
## 10      558            600      753            745      138
## # … with 336,766 more rows
```

---

# Selecting columns

## Helper functions

### Select columns starting or ending with text with `starts_with()` or `ends_with()`

```r
select(flights, starts_with("dep_"))
```

```
## # A tibble: 336,776 × 2
##    dep_time dep_delay
##       <int>     <dbl>
##  1      517         2
##  2      533         4
##  3      542         2
##  4      544        -1
##  5      554        -6
##  6      554        -4
##  7      555        -5
##  8      557        -3
##  9      557        -3
## 10      558        -2
## # … with 336,766 more rows
```
…
<img src="../images/dplyr_select_move.png", height = 45%, style = "position:absolute; top: 32%; left: 40%"></img>

---

# Moving columns

## `select()`

```r
select(flights, carrier, flight, year:day)
```

```
## # A tibble: 336,776 × 5
##    carrier flight  year month   day
##    <chr>    <int> <int> <int> <int>
##  1 UA        1545  2013     1     1
##  2 UA        1714  2013     1     1
##  3 AA        1141  2013     1     1
##  4 B6         725  2013     1     1
##  5 DL         461  2013     1     1
##  6 UA        1696  2013     1     1
##  7 B6         507  2013     1     1
##  8 EV        5708  2013     1     1
##  9 B6          79  2013     1     1
## 10 AA         301  2013     1     1
## # … with 336,766 more rows
```
…
<img src="../images/dplyr_relocate.png", height = 45%, style = "position:absolute; top: 32%; left: 32%"></img>

---

# Moving columns

## `relocate()`

```r
relocate(flights, carrier, flight, .before = year)
```

```
## # A tibble: 336,776 × 19
##    carrier flight  year month   day dep_time sched_dep_time dep_delay arr_time
##    <chr>    <int> <int> <int> <int>    <int>          <int>     <dbl>    <int>
##  1 UA        1545  2013     1     1      517            515         2      830
##  2 UA        1714  2013     1     1      533            529         4      850
##  3 AA        1141  2013     1     1      542            540         2      923
##  4 B6         725  2013     1     1      544            545        -1     1004
##  5 DL         461  2013     1     1      554            600        -6      812
##  6 UA        1696  2013     1     1      554            558        -4      740
##  7 B6         507  2013     1     1      555            600        -5      913
##  8 EV        5708  2013     1     1      557            600        -3      709
##  9 B6          79  2013     1     1      557            600        -3      838
## 10 AA         301  2013     1     1      558            600        -2      753
## # … with 336,766 more rows, and 10 more variables: sched_arr_time <int>,
## #   arr_delay <dbl>, tailnum <chr>, origin <chr>, dest <chr>, air_time <dbl>,
## #   distance <dbl>, hour <dbl>, minute <dbl>, time_hour <dttm>
```

---

# Renaming columns

## `select()`

```r
select(flights, airline = carrier, flight_num = flight, everything())
```

```
## # A tibble: 336,776 × 19
##    airline flight_num  year month   day dep_time sched_dep_time dep_delay
##    <chr>        <int> <int> <int> <int>    <int>          <int>     <dbl>
##  1 UA            1545  2013     1     1      517            515         2
##  2 UA            1714  2013     1     1      533            529         4
##  3 AA            1141  2013     1     1      542            540         2
##  4 B6             725  2013     1     1      544            545        -1
##  5 DL             461  2013     1     1      554            600        -6
##  6 UA            1696  2013     1     1      554            558        -4
##  7 B6             507  2013     1     1      555            600        -5
##  8 EV            5708  2013     1     1      557            600        -3
##  9 B6              79  2013     1     1      557            600        -3
## 10 AA             301  2013     1     1      558            600        -2
## # … with 336,766 more rows, and 11 more variables: arr_time <int>,
## #   sched_arr_time <int>, arr_delay <dbl>, tailnum <chr>, origin <chr>,
## #   dest <chr>, air_time <dbl>, distance <dbl>, hour <dbl>, minute <dbl>,
## #   time_hour <dttm>
```
…
<img src="../images/dplyr_rename.png", height = 45%, style = "position:absolute; top: 32%; left: 35%"></img>

---

# Renaming columns

## `rename()`

```r
rename(flights, departure = dep_time, arrival = arr_time)
```

```
## # A tibble: 336,776 × 19
##     year month   day departure sched_dep_time dep_delay arrival sched_arr_time
##    <int> <int> <int>     <int>          <int>     <dbl>   <int>          <int>
##  1  2013     1     1       517            515         2     830            819
##  2  2013     1     1       533            529         4     850            830
##  3  2013     1     1       542            540         2     923            850
##  4  2013     1     1       544            545        -1    1004           1022
##  5  2013     1     1       554            600        -6     812            837
##  6  2013     1     1       554            558        -4     740            728
##  7  2013     1     1       555            600        -5     913            854
##  8  2013     1     1       557            600        -3     709            723
##  9  2013     1     1       557            600        -3     838            846
## 10  2013     1     1       558            600        -2     753            745
## # … with 336,766 more rows, and 11 more variables: arr_delay <dbl>,
## #   carrier <chr>, flight <int>, tailnum <chr>, origin <chr>, dest <chr>,
## #   air_time <dbl>, distance <dbl>, hour <dbl>, minute <dbl>, time_hour <dttm>
```
…
<img src="../images/dplyr_mutate.png", height = 45%, style = "position:absolute; top: 32%; left: 40%"></img>

---

# Changing existing columns

## `mutate()`

```r
mutate(flights, month = as.character(month))
```

```
## # A tibble: 336,776 × 19
##     year month   day dep_time sched_dep_time dep_delay arr_time sched_arr_time
##    <int> <chr> <int>    <int>          <int>     <dbl>    <int>          <int>
##  1  2013 1         1      517            515         2      830            819
##  2  2013 1         1      533            529         4      850            830
##  3  2013 1         1      542            540         2      923            850
##  4  2013 1         1      544            545        -1     1004           1022
##  5  2013 1         1      554            600        -6      812            837
##  6  2013 1         1      554            558        -4      740            728
##  7  2013 1         1      555            600        -5      913            854
##  8  2013 1         1      557            600        -3      709            723
##  9  2013 1         1      557            600        -3      838            846
## 10  2013 1         1      558            600        -2      753            745
## # … with 336,766 more rows, and 11 more variables: arr_delay <dbl>,
## #   carrier <chr>, flight <int>, tailnum <chr>, origin <chr>, dest <chr>,
## #   air_time <dbl>, distance <dbl>, hour <dbl>, minute <dbl>, time_hour <dttm>
```

---

# Changing existing columns

## `mutate()`

```r
mutate(flights, dep_time = convert_time(dep_time))
```

```
## # A tibble: 336,776 × 19
##     year month   day dep_time sched_dep_time dep_delay arr_time sched_arr_time
##    <int> <int> <int> <chr>             <int>     <dbl>    <int>          <int>
##  1  2013     1     1 05:17               515         2      830            819
##  2  2013     1     1 05:33               529         4      850            830
##  3  2013     1     1 05:42               540         2      923            850
##  4  2013     1     1 05:44               545        -1     1004           1022
##  5  2013     1     1 05:54               600        -6      812            837
##  6  2013     1     1 05:54               558        -4      740            728
##  7  2013     1     1 05:55               600        -5      913            854
##  8  2013     1     1 05:57               600        -3      709            723
##  9  2013     1     1 05:57               600        -3      838            846
## 10  2013     1     1 05:58               600        -2      753            745
## # … with 336,766 more rows, and 11 more variables: arr_delay <dbl>,
## #   carrier <chr>, flight <int>, tailnum <chr>, origin <chr>, dest <chr>,
## #   air_time <dbl>, distance <dbl>, hour <dbl>, minute <dbl>, time_hour <dttm>
```

---

# Creating columns

## `mutate()`

```r
mutate(flights, flight_time = arr_time - dep_time)
```

```
## # A tibble: 336,776 × 20
##     year month   day dep_time sched_dep_time dep_delay arr_time sched_arr_time
##    <int> <int> <int>    <int>          <int>     <dbl>    <int>          <int>
##  1  2013     1     1      517            515         2      830            819
##  2  2013     1     1      533            529         4      850            830
##  3  2013     1     1      542            540         2      923            850
##  4  2013     1     1      544            545        -1     1004           1022
##  5  2013     1     1      554            600        -6      812            837
##  6  2013     1     1      554            558        -4      740            728
##  7  2013     1     1      555            600        -5      913            854
##  8  2013     1     1      557            600        -3      709            723
##  9  2013     1     1      557            600        -3      838            846
## 10  2013     1     1      558            600        -2      753            745
## # … with 336,766 more rows, and 12 more variables: arr_delay <dbl>,
## #   carrier <chr>, flight <int>, tailnum <chr>, origin <chr>, dest <chr>,
## #   air_time <dbl>, distance <dbl>, hour <dbl>, minute <dbl>, time_hour <dttm>,
## #   flight_time <int>
```

---

# Creating columns

## `mutate()`

```r
mutate(flights, flight_time = arr_time - dep_time) %>% 
  relocate(flight_time, .after = arr_time)
```

```
## # A tibble: 336,776 × 20
##     year month   day dep_time sched_dep_time dep_delay arr_time flight_time
##    <int> <int> <int>    <int>          <int>     <dbl>    <int>       <int>
##  1  2013     1     1      517            515         2      830         313
##  2  2013     1     1      533            529         4      850         317
##  3  2013     1     1      542            540         2      923         381
##  4  2013     1     1      544            545        -1     1004         460
##  5  2013     1     1      554            600        -6      812         258
##  6  2013     1     1      554            558        -4      740         186
##  7  2013     1     1      555            600        -5      913         358
##  8  2013     1     1      557            600        -3      709         152
##  9  2013     1     1      557            600        -3      838         281
## 10  2013     1     1      558            600        -2      753         195
## # … with 336,766 more rows, and 12 more variables: sched_arr_time <int>,
## #   arr_delay <dbl>, carrier <chr>, flight <int>, tailnum <chr>, origin <chr>,
## #   dest <chr>, air_time <dbl>, distance <dbl>, hour <dbl>, minute <dbl>,
## #   time_hour <dttm>
```

---

# Applying functions to multiple columns

```r
mutate(flights, min_dep_time = min(dep_time, sched_dep_time, na.rm = TRUE)) %>% 
  relocate(min_dep_time, .after = arr_time)
```

```
## # A tibble: 336,776 × 20
##     year month   day dep_time sched_dep_time dep_delay arr_time min_dep_time
##    <int> <int> <int>    <int>          <int>     <dbl>    <int>        <int>
##  1  2013     1     1      517            515         2      830            1
##  2  2013     1     1      533            529         4      850            1
##  3  2013     1     1      542            540         2      923            1
##  4  2013     1     1      544            545        -1     1004            1
##  5  2013     1     1      554            600        -6      812            1
##  6  2013     1     1      554            558        -4      740            1
##  7  2013     1     1      555            600        -5      913            1
##  8  2013     1     1      557            600        -3      709            1
##  9  2013     1     1      557            600        -3      838            1
## 10  2013     1     1      558            600        -2      753            1
## # … with 336,766 more rows, and 12 more variables: sched_arr_time <int>,
## #   arr_delay <dbl>, carrier <chr>, flight <int>, tailnum <chr>, origin <chr>,
## #   dest <chr>, air_time <dbl>, distance <dbl>, hour <dbl>, minute <dbl>,
## #   time_hour <dttm>
```

---

# Applying functions to multiple columns

## `rowwise()`

```r
rowwise(flights) %>% 
mutate(min_dep_time = min(dep_time, sched_dep_time)) %>% 
  relocate(min_dep_time, .after = arr_time)
```

```
## # A tibble: 336,776 × 20
## # Rowwise: 
##     year month   day dep_time sched_dep_time dep_delay arr_time min_dep_time
##    <int> <int> <int>    <int>          <int>     <dbl>    <int>        <int>
##  1  2013     1     1      517            515         2      830          515
##  2  2013     1     1      533            529         4      850          529
##  3  2013     1     1      542            540         2      923          540
##  4  2013     1     1      544            545        -1     1004          544
##  5  2013     1     1      554            600        -6      812          554
##  6  2013     1     1      554            558        -4      740          554
##  7  2013     1     1      555            600        -5      913          555
##  8  2013     1     1      557            600        -3      709          557
##  9  2013     1     1      557            600        -3      838          557
## 10  2013     1     1      558            600        -2      753          558
## # … with 336,766 more rows, and 12 more variables: sched_arr_time <int>,
## #   arr_delay <dbl>, carrier <chr>, flight <int>, tailnum <chr>, origin <chr>,
## #   dest <chr>, air_time <dbl>, distance <dbl>, hour <dbl>, minute <dbl>,
## #   time_hour <dttm>
```
…
